
C:\MyProjects\RTR_4_2021-116\03-C_Assignments\MyAssignments\09-ControlFlow\06-WhileLoop\05-NestedWhileLoop\03-NestedWhileLoop_CheckerBoard>cl.exe /c /EHsc NestedWhileLoop_Checkerboard.c
Microsoft (R) C/C++ Optimizing Compiler Version 19.29.30136 for x86
Copyright (C) Microsoft Corporation.  All rights reserved.

NestedWhileLoop_Checkerboard.c

C:\MyProjects\RTR_4_2021-116\03-C_Assignments\MyAssignments\09-ControlFlow\06-WhileLoop\05-NestedWhileLoop\03-NestedWhileLoop_CheckerBoard>link.exe NestedWhileLoop_Checkerboard.obj
Microsoft (R) Incremental Linker Version 14.29.30136.0
Copyright (C) Microsoft Corporation.  All rights reserved.


C:\MyProjects\RTR_4_2021-116\03-C_Assignments\MyAssignments\09-ControlFlow\06-WhileLoop\05-NestedWhileLoop\03-NestedWhileLoop_CheckerBoard>NestedWhileLoop_Checkerboard.exe


                * * * * * * * *                 * * * * * * * *                 * * * * * * * *                 * * * * * * * *

                * * * * * * * *                 * * * * * * * *                 * * * * * * * *                 * * * * * * * *

                * * * * * * * *                 * * * * * * * *                 * * * * * * * *                 * * * * * * * *

                * * * * * * * *                 * * * * * * * *                 * * * * * * * *                 * * * * * * * *

                * * * * * * * *                 * * * * * * * *                 * * * * * * * *                 * * * * * * * *

                * * * * * * * *                 * * * * * * * *                 * * * * * * * *                 * * * * * * * *

                * * * * * * * *                 * * * * * * * *                 * * * * * * * *                 * * * * * * * *

                * * * * * * * *                 * * * * * * * *                 * * * * * * * *                 * * * * * * * *

* * * * * * * *                 * * * * * * * *                 * * * * * * * *                 * * * * * * * *

* * * * * * * *                 * * * * * * * *                 * * * * * * * *                 * * * * * * * *

* * * * * * * *                 * * * * * * * *                 * * * * * * * *                 * * * * * * * *

* * * * * * * *                 * * * * * * * *                 * * * * * * * *                 * * * * * * * *

* * * * * * * *                 * * * * * * * *                 * * * * * * * *                 * * * * * * * *

* * * * * * * *                 * * * * * * * *                 * * * * * * * *                 * * * * * * * *

* * * * * * * *                 * * * * * * * *                 * * * * * * * *                 * * * * * * * *

* * * * * * * *                 * * * * * * * *                 * * * * * * * *                 * * * * * * * *

                * * * * * * * *                 * * * * * * * *                 * * * * * * * *                 * * * * * * * *

                * * * * * * * *                 * * * * * * * *                 * * * * * * * *                 * * * * * * * *

                * * * * * * * *                 * * * * * * * *                 * * * * * * * *                 * * * * * * * *

                * * * * * * * *                 * * * * * * * *                 * * * * * * * *                 * * * * * * * *

                * * * * * * * *                 * * * * * * * *                 * * * * * * * *                 * * * * * * * *

                * * * * * * * *                 * * * * * * * *                 * * * * * * * *                 * * * * * * * *

                * * * * * * * *                 * * * * * * * *                 * * * * * * * *                 * * * * * * * *

                * * * * * * * *                 * * * * * * * *                 * * * * * * * *                 * * * * * * * *

* * * * * * * *                 * * * * * * * *                 * * * * * * * *                 * * * * * * * *

* * * * * * * *                 * * * * * * * *                 * * * * * * * *                 * * * * * * * *

* * * * * * * *                 * * * * * * * *                 * * * * * * * *                 * * * * * * * *

* * * * * * * *                 * * * * * * * *                 * * * * * * * *                 * * * * * * * *

* * * * * * * *                 * * * * * * * *                 * * * * * * * *                 * * * * * * * *

* * * * * * * *                 * * * * * * * *                 * * * * * * * *                 * * * * * * * *

* * * * * * * *                 * * * * * * * *                 * * * * * * * *                 * * * * * * * *

* * * * * * * *                 * * * * * * * *                 * * * * * * * *                 * * * * * * * *

                * * * * * * * *                 * * * * * * * *                 * * * * * * * *                 * * * * * * * *

                * * * * * * * *                 * * * * * * * *                 * * * * * * * *                 * * * * * * * *

                * * * * * * * *                 * * * * * * * *                 * * * * * * * *                 * * * * * * * *

                * * * * * * * *                 * * * * * * * *                 * * * * * * * *                 * * * * * * * *

                * * * * * * * *                 * * * * * * * *                 * * * * * * * *                 * * * * * * * *

                * * * * * * * *                 * * * * * * * *                 * * * * * * * *                 * * * * * * * *

                * * * * * * * *                 * * * * * * * *                 * * * * * * * *                 * * * * * * * *

                * * * * * * * *                 * * * * * * * *                 * * * * * * * *                 * * * * * * * *

* * * * * * * *                 * * * * * * * *                 * * * * * * * *                 * * * * * * * *

* * * * * * * *                 * * * * * * * *                 * * * * * * * *                 * * * * * * * *

* * * * * * * *                 * * * * * * * *                 * * * * * * * *                 * * * * * * * *

* * * * * * * *                 * * * * * * * *                 * * * * * * * *                 * * * * * * * *

* * * * * * * *                 * * * * * * * *                 * * * * * * * *                 * * * * * * * *

* * * * * * * *                 * * * * * * * *                 * * * * * * * *                 * * * * * * * *

* * * * * * * *                 * * * * * * * *                 * * * * * * * *                 * * * * * * * *

* * * * * * * *                 * * * * * * * *                 * * * * * * * *                 * * * * * * * *

                * * * * * * * *                 * * * * * * * *                 * * * * * * * *                 * * * * * * * *

                * * * * * * * *                 * * * * * * * *                 * * * * * * * *                 * * * * * * * *

                * * * * * * * *                 * * * * * * * *                 * * * * * * * *                 * * * * * * * *

                * * * * * * * *                 * * * * * * * *                 * * * * * * * *                 * * * * * * * *

                * * * * * * * *                 * * * * * * * *                 * * * * * * * *                 * * * * * * * *

                * * * * * * * *                 * * * * * * * *                 * * * * * * * *                 * * * * * * * *

                * * * * * * * *                 * * * * * * * *                 * * * * * * * *                 * * * * * * * *

                * * * * * * * *                 * * * * * * * *                 * * * * * * * *                 * * * * * * * *

* * * * * * * *                 * * * * * * * *                 * * * * * * * *                 * * * * * * * *

* * * * * * * *                 * * * * * * * *                 * * * * * * * *                 * * * * * * * *

* * * * * * * *                 * * * * * * * *                 * * * * * * * *                 * * * * * * * *

* * * * * * * *                 * * * * * * * *                 * * * * * * * *                 * * * * * * * *

* * * * * * * *                 * * * * * * * *                 * * * * * * * *                 * * * * * * * *

* * * * * * * *                 * * * * * * * *                 * * * * * * * *                 * * * * * * * *

* * * * * * * *                 * * * * * * * *                 * * * * * * * *                 * * * * * * * *

* * * * * * * *                 * * * * * * * *                 * * * * * * * *                 * * * * * * * *


C:\MyProjects\RTR_4_2021-116\03-C_Assignments\MyAssignments\09-ControlFlow\06-WhileLoop\05-NestedWhileLoop\03-NestedWhileLoop_CheckerBoard>