
C:\MyProjects\RTR_4_2021-116\03-C_Assignments\MyAssignments\09-ControlFlow\05-ForLoop\05-NestedForLoop\01-NestedForLoop_One>cl.exe /c /EHsc NestedForLoop_One.c
Microsoft (R) C/C++ Optimizing Compiler Version 19.29.30136 for x86
Copyright (C) Microsoft Corporation.  All rights reserved.

NestedForLoop_One.c

C:\MyProjects\RTR_4_2021-116\03-C_Assignments\MyAssignments\09-ControlFlow\05-ForLoop\05-NestedForLoop\01-NestedForLoop_One>link.exe NestedForLoop_One.obj
Microsoft (R) Incremental Linker Version 14.29.30136.0
Copyright (C) Microsoft Corporation.  All rights reserved.


C:\MyProjects\RTR_4_2021-116\03-C_Assignments\MyAssignments\09-ControlFlow\05-ForLoop\05-NestedForLoop\01-NestedForLoop_One>NestedForLoop_One.exe


        Count = 1               I = 1   and     J = 1
        Count = 2               I = 1   and     J = 2
        Count = 3               I = 1   and     J = 3
        Count = 4               I = 1   and     J = 4
        Count = 5               I = 1   and     J = 5


        Count = 6               I = 2   and     J = 1
        Count = 7               I = 2   and     J = 2
        Count = 8               I = 2   and     J = 3
        Count = 9               I = 2   and     J = 4
        Count = 10              I = 2   and     J = 5


        Count = 11              I = 3   and     J = 1
        Count = 12              I = 3   and     J = 2
        Count = 13              I = 3   and     J = 3
        Count = 14              I = 3   and     J = 4
        Count = 15              I = 3   and     J = 5


        Count = 16              I = 4   and     J = 1
        Count = 17              I = 4   and     J = 2
        Count = 18              I = 4   and     J = 3
        Count = 19              I = 4   and     J = 4
        Count = 20              I = 4   and     J = 5


        Count = 21              I = 5   and     J = 1
        Count = 22              I = 5   and     J = 2
        Count = 23              I = 5   and     J = 3
        Count = 24              I = 5   and     J = 4
        Count = 25              I = 5   and     J = 5


        Count = 26              I = 6   and     J = 1
        Count = 27              I = 6   and     J = 2
        Count = 28              I = 6   and     J = 3
        Count = 29              I = 6   and     J = 4
        Count = 30              I = 6   and     J = 5


        Count = 31              I = 7   and     J = 1
        Count = 32              I = 7   and     J = 2
        Count = 33              I = 7   and     J = 3
        Count = 34              I = 7   and     J = 4
        Count = 35              I = 7   and     J = 5


        Count = 36              I = 8   and     J = 1
        Count = 37              I = 8   and     J = 2
        Count = 38              I = 8   and     J = 3
        Count = 39              I = 8   and     J = 4
        Count = 40              I = 8   and     J = 5


        Count = 41              I = 9   and     J = 1
        Count = 42              I = 9   and     J = 2
        Count = 43              I = 9   and     J = 3
        Count = 44              I = 9   and     J = 4
        Count = 45              I = 9   and     J = 5


        Count = 46              I = 10  and     J = 1
        Count = 47              I = 10  and     J = 2
        Count = 48              I = 10  and     J = 3
        Count = 49              I = 10  and     J = 4
        Count = 50              I = 10  and     J = 5



Nested For Loop - One Ends Here...


C:\MyProjects\RTR_4_2021-116\03-C_Assignments\MyAssignments\09-ControlFlow\05-ForLoop\05-NestedForLoop\01-NestedForLoop_One>